<?xml version="1.0" encoding="UTF-8" standalone="no"?>
<!-- Created with Inkscape (http://www.inkscape.org/) -->

<svg
   width="100.3825"
   height="50.3825"
   version="1.1"
   id="svg5"
   xmlns="http://www.w3.org/2000/svg"
   xmlns:svg="http://www.w3.org/2000/svg">
  <defs
     id="defs2" />
  <g
     id="layer1">
    <rect
       style="fill:#ffffff;stroke:#ff6600;stroke-width:0.5;stroke-dasharray:0.5, 0.5;stroke-dashoffset:0;stroke-opacity:1;padding-left: 5px;padding-right: 5px"
       id="labelRectangle"
       width="50"
       height="10"
       x="0"
       y="0" />
    <rect
       id="mainRectangle"
       width="100"
       height="40"
       x="0"
       y="10"
       style="fill:#ffffff;stroke:#000000;stroke-width:0.265;stroke-dasharray:0.265, 0.265;stroke-dashoffset:0;stroke-opacity:1;padding-left: 5px;padding-right: 5px" />
  </g>
</svg>
